Windows Cache and History;;;;;d7dc68c3-4dfc-42f1-8f3f-a75885e48206
;Windows Entries;;;;0b41837a-e1e8-4418-99fa-ff3979518116
;;Document history;{userprofile}\appdata\roaming\microsoft\windows\recent;dir;aff5091c-1a46-4a58-9a87-bd35ff3161c4
;;Document history;{userprofile}\recent;dir;4dd9c786-0b3c-4251-adc1-3f0901413ef3
;;Find and search history;{userprofile}\searches;dir;3cf883c5-538f-41ff-bde0-a69681695433
;;Temporary files directory;{userprofile}\appdata\local\temp;dir;4c89fe43-ea6b-4107-989d-8236d1862535
;;Temporary files directory;{userprofile}\Local Settings\Temp;dir;55a92792-b554-4c08-aace-446139be18b0
;;Windows log files;c:\windows\logs;dir;4e65ee27-95fc-47cd-bfa4-f36c6c232ec7
;;Windows log files;c:\windows\*.log;file;7d1a11ad-05f8-4335-aa38-915639644433
;;Windows log files;c:\windows\system32\wbem\logs;dir;4e1bcd94-57eb-4740-bc6b-68ae8d95138a
;;Windows Temp folder;c:\temp;dir;72df97ef-f9cd-4d02-8506-91dde0cf255c
;;Windows Temp folder;c:\windows\temp;dir;0edbce23-fcb4-491b-9da1-e4b06aa484e9
;;Temporary Windows update files;{userprofile}\appdata\roaming\microsoft\internet explorer\userdata;dir;c807268e-66da-4871-83c4-16108c91f25c
;;Temporary Windows update files;{userprofile}\UserData;dir;a002a558-531b-4957-ad87-d087cb623df9
;;Temporary Windows update files;c:\windows\softwaredistributions\download;dir;07e880e3-dcb0-41d7-87f3-69b6bbb567cd
;;Application debugging history;c:\windows\debug;dir;21ed8101-a3d7-415f-b18c-613b0263b5e0
Internet Browsing History;;;;;fa196121-a01a-4892-9dfd-66b2bb03f6c6
;Internet Explorer 5.x - 8.x;;;;4c026174-1e57-47e4-9564-47cdd95672d9
;;Temp Internet Files folder;{userprofile}\appdata\local\microsoft\windows\temporary internet files;dir;76728e48-cf6a-4ffd-970b-03b96419ff9f
;;History (visited sites);{userprofile}\appdata\local\microsoft\windows\history;dir;6a30021b-e47c-4173-b2e6-5bc1a6f10a0d
;;Cookies;{userprofile}\appdata\roaming\microsoft\windows\cookies;dir;f87ea6eb-f518-4c32-8a1b-6a73da81a692
;;Index files;{userprofile}\appdata\local\microsoft\windows\temporary internet files\content.ie5\index.dat;file;76f6ca4d-bcd1-4731-a365-ec78778dacb7
;;Index files;{userprofile}\appdata\roaming\microsoft\internet explorer\userdata\index.dat;file;43ec7590-2987-43cf-a4b5-d5dc139ee028
;;Index files;{userprofile}\appdata\roaming\microsoft\windows\cookies\index.dat;file;45c41dba-5784-497a-af11-126d9de6ad52
;;Setup log files from IE updates;{userprofile}\appdata\local\microsoft\internet explorer\brndlog.txt;file;992bd597-1fd1-4cfd-8a4a-38147608d969
;;Downloaded program files;c:\windows\downloaded program files;dir;5d3b6f0a-8986-4c64-b944-c15e673bc1c0
;Firefox 1.x - 3.x;;;;c390f1e3-d0e2-4629-b919-368f9a709421
;;Cache;{userprofile}\appdata\local\mozilla\firefox\profiles;dir;dbbe6118-7699-43dd-8dd5-e63bb0138ea9
;Google Chrome 1.x - 6.x;;;;ac152f65-ea46-4a30-ac42-6ee29020491f
;;Browsing and download history;{userprofile}\appdata\local\google\chrome\user data\default\History*;file;1a05f3a2-0010-47d5-862e-b0e4d2797983
;;Browsing and download history;{userprofile}\appdata\local\google\chrome\user data\default\archived history;file;e724874f-bfcf-4f40-9435-99f35f799be3
;;Browsing and download history;{userprofile}\appdata\local\google\chrome\user data\default\current session;file;a0e89d19-19e7-4a2b-b234-0adc43106f52
;;Browsing and download history;{userprofile}\appdata\local\google\chrome\user data\default\current tabs;file;8318738d-0fce-48df-8500-9f93b6962db6
;;Browsing and download history;{userprofile}\appdata\local\google\chrome\user data\default\last session;file;bdc299c5-dcce-4576-b50f-0593dbbb12ea
;;Browsing and download history;{userprofile}\appdata\local\google\chrome\user data\default\last tabs;file;a567d7df-e710-4e61-9234-c89413db52e2
;;Browsing and download history;{userprofile}\appdata\local\google\chrome\user data\default\thumbnails;file;be12b055-a6e5-41af-af6a-214e2ac5d646
;;Browsing and download history;{userprofile}\appdata\local\google\chrome\user data\default\visited links;file;f874b3b5-1929-4623-8171-348310f1fc79
;;Cache;{userprofile}\appdata\local\google\chrome\user data\default\cache;dir;6168c4fa-1d78-4719-87eb-e5fa77fc008e
;;Cookies;{userprofile}\appdata\local\google\chrome\user data\default\*cookies*;file;80538945-696d-4dc9-8789-2940634f4c0c
MS Office History;;;;;406686bf-2628-4be7-913f-b7d72729b027
;Shared Office Resources;;;;c1598d8e-3cc9-4dda-946f-8a411321d4d6
;;Office Recent folder;{userprofile}\appdata\roaming\microsoft\office\recent;dir;2b1a292d-7382-4536-8a48-b7de3e1befb7
Multimedia History;;;;;4542dec0-3056-4c49-8569-ef46b4744755
;Windows Media Player 6.x - 12.x;;;;d5f5cb06-1b1a-40cf-a2f7-5fe2bd2b9e96
;;Windows Media Player Cache;{userprofile}\appdata\local\microsoft\media player\art cache;dir;365f077d-8a08-4857-8160-040d6249b44d
;;Windows Media Player Cache;{userprofile}\appdata\local\microsoft\media player\currentdatabase_360.wmdb;file;839bdb4a-63ee-4546-a312-be145a1fdd25
Third-Party Application History;;;;;a08b6254-a78a-4c3b-b5ff-8bea8d6b9be7
;Adobe Acrobat 4.x - 7.x, 9.x;;;;f59350b6-1c86-4366-ace4-861762f4d917
;;Cache;{userprofile}\appdata\local\adobe\acrobat\9.0\cache;dir;08749ef3-c035-4153-870e-fcec58b94218
;;Cache;{userprofile}\appdata\local\application data\adobe\acrobat\9.0\cache;dir;8a000cc9-d55b-4a8b-86ff-3a07c8598035
;Adobe Flash Player;;;;bf499955-215b-445b-a8e3-c04b987479da
;;History and temp files;{userprofile}\appdata\roaming\macromedia\flash player;dir;5f1aeae7-a072-4772-aa2f-0297ab10096f
;Windows Search;;;;d962ef54-675b-40fc-abf9-57d8c1cda94d
;;Index;c:\programdata\microsoft\search\data\applications\windows\*.edb;file;855a9c59-7c3c-4d0f-b42d-fee8467658fc
;;Index;c:\programdata\microsoft\search\data\applications\windows\projects\systemindex\systemindex*.gthr;file;9ae42758-6bb1-4b9d-a2cb-ec3ac33caa38
;;Logs;c:\programdata\microsoft\search\data\applications\windows\*.log;file;884fca00-6e96-454b-af31-bd8f1ef60f2d
